Procesamiento avanzado de Bases de Datos en R
…
## mutate: creación de datos

La función `mutate()` permite crear y transformar variables. Equivalente a `gen` en `Stata` o `compute` en `Spss`.

Continuando con los datos de la encuesta Casen 2017, esta es la vista no-ordenada de los datos:

--

```r
library("tidyverse")
data_casen_csv %>% select(sexo,edad,ytotcor)
```

```
## # A tibble: 21,644 × 3
##     sexo  edad ytotcor
##    <dbl> <dbl>   <dbl>
##  1     2    15      NA
##  2     2    59      NA
##  3     2    33   78327
##  4     1    47 1508333
##  5     2    58    1667
##  6     2     1      NA
##  7     1    42  270000
##  8     2    45   44109
##  9     2    27  433333
## 10     2    17      NA
## # ℹ 21,634 more rows
```

---

## mutate: creación de datos

Supongamos que queremos agregar una variable que indica el año de la encuesta:

--

```r
data_casen_csv %>% select(sexo,edad,ytotcor) %>% mutate(anno = 2017)
```

```
## # A tibble: 21,644 × 4
##     sexo  edad ytotcor  anno
##    <dbl> <dbl>   <dbl> <dbl>
##  1     2    15      NA  2017
##  2     2    59      NA  2017
##  3     2    33   78327  2017
##  4     1    47 1508333  2017
##  5     2    58    1667  2017
##  6     2     1      NA  2017
##  7     1    42  270000  2017
##  8     2    45   44109  2017
##  9     2    27  433333  2017
## 10     2    17      NA  2017
## # ℹ 21,634 more rows
```

---

## mutate: creación de datos

También podemos crear nuevas variables en base a variables existentes:
--

```r
data_casen_csv %>% select(sexo,edad,ytotcor) %>% mutate(ytotcor_mm = log(ytotcor/1000) + 1)
```

```
## # A tibble: 21,644 × 4
##     sexo  edad ytotcor ytotcor_mm
##    <dbl> <dbl>   <dbl>      <dbl>
##  1     2    15      NA      NA   
##  2     2    59      NA      NA   
##  3     2    33   78327       5.36
##  4     1    47 1508333       8.32
##  5     2    58    1667       1.51
##  6     2     1      NA      NA   
##  7     1    42  270000       6.60
##  8     2    45   44109       4.79
##  9     2    27  433333       7.07
## 10     2    17      NA      NA   
## # ℹ 21,634 more rows
```
…
También podemos crear nuevas variables en función de valores de variable(s) existente(s).
--
 La función `if_else()` es conveniente para casos simples. Por ejemplo:

.pull-left[

```r
data_casen_csv %>% select(sexo,edad,ytotcor) %>% 
* mutate(sexo = if_else(sexo==1,1,0))
```

```
## # A tibble: 21,644 × 3
##     sexo  edad ytotcor
##    <dbl> <dbl>   <dbl>
##  1     0    15      NA
##  2     0    59      NA
##  3     0    33   78327
##  4     1    47 1508333
##  5     0    58    1667
##  6     0     1      NA
##  7     1    42  270000
##  8     0    45   44109
##  9     0    27  433333
## 10     0    17      NA
## # ℹ 21,634 more rows
```
…
La función `cases_when()` permite crear una nueva variable en base al valor(es) de otra(s) variable(s).
--
 Más cómodo que `if_else()` cuando la condición es complexa.

```r
data_casen_csv %>% select(sexo,edad,ytotcor) %>% 
* mutate(edad_cat = case_when(edad <= 18 ~ 1,
*                             edad >18 & edad<=65 ~ 2,
*                             edad > 65  ~ 3)
                              )
```

```
## # A tibble: 21,644 × 4
##     sexo  edad ytotcor edad_cat
##    <dbl> <dbl>   <dbl>    <dbl>
##  1     2    15      NA        1
##  2     2    59      NA        2
##  3     2    33   78327        2
##  4     1    47 1508333        2
##  5     2    58    1667        2
##  6     2     1      NA        1
##  7     1    42  270000        2
##  8     2    45   44109        2
##  9     2    27  433333        2
## 10     2    17      NA        1
## # ℹ 21,634 more rows
```
…
Supongamos que queremos agregar un nueva variable que calcule la cantidad de personas por region y la edad promedio por region. `group_by()` es una herramienta muy conveniente para realizar este tipo de operaciones.

--

```r
data_casen_csv %>% 
* group_by(region) %>%
* mutate(n_region = n(), mean_ytotcor_region = mean(ytotcor, na.rm = T)) %>%
* #ungroup() %>%
  select(region,sexo,edad, ytotcor,n_region, mean_ytotcor_region) 
```

```
## # A tibble: 21,644 × 6
## # Groups:   region [16]
##    region  sexo  edad ytotcor n_region mean_ytotcor_region
##     <dbl> <dbl> <dbl>   <dbl>    <int>               <dbl>
##  1     13     2    15      NA     4233             625465.
##  2      7     2    59      NA     1541             306517.
##  3     13     2    33   78327     4233             625465.
##  4     13     1    47 1508333     4233             625465.
##  5      9     2    58    1667     1546             308376.
##  6     13     2     1      NA     4233             625465.
##  7      6     1    42  270000     1647             312602.
##  8      8     2    45   44109     2166             324471.
##  9      3     2    27  433333      679             422632.
## 10      6     2    17      NA     1647             312602.
## # ℹ 21,634 more rows
```
…
Es posible agrupar por más de una variable ....
Por ejemplo, calcule ahora la cantidad hombres y mujeres por region y la edad promedio por region y genero.

--

```r
data_casen_csv %>% 
* group_by(region, sexo) %>%
* mutate(n_region = n(), mean_ytotcor_region = mean(ytotcor, na.rm = T)) %>%
* #ungroup() %>%
  select(region,sexo,edad, ytotcor,n_region, mean_ytotcor_region)
```

```
## # A tibble: 21,644 × 6
## # Groups:   region, sexo [32]
##    region  sexo  edad ytotcor n_region mean_ytotcor_region
##     <dbl> <dbl> <dbl>   <dbl>    <int>               <dbl>
##  1     13     2    15      NA     2190             486565.
##  2      7     2    59      NA      815             238102.
##  3     13     2    33   78327     2190             486565.
##  4     13     1    47 1508333     2043             763584.
##  5      9     2    58    1667      814             233936.
##  6     13     2     1      NA     2190             486565.
##  7      6     1    42  270000      787             356659.
##  8      8     2    45   44109     1092             242467.
##  9      3     2    27  433333      360             331062.
## 10      6     2    17      NA      860             267238.
## # ℹ 21,634 more rows
```
…
