Procesamiento avanzado de Bases de Datos en R
…
---
## summarise by_group(): resumiendo datos agupados

```r
data_casen_csv %>% 
* group_by(region, sexo) %>%
  summarise(mean_ytotcor_region = mean(ytotcor, na.rm = T), 
            median_ytotcor_region = median(ytotcor, na.rm = T))
```

```
## # A tibble: 32 × 4
## # Groups:   region [16]
##    region  sexo mean_ytotcor_region median_ytotcor_region
##     <dbl> <dbl>               <dbl>                 <dbl>
##  1      1     1             553568.               400000 
##  2      1     2             344284.               270625 
##  3      2     1             717358.               534328.
##  4      2     2             425246.               292900.
##  5      3     1             518018.               365518.
##  6      3     2             331062.               253684 
##  7      4     1             371221.               300000 
##  8      4     2             204881.               123041 
##  9      5     1             500857.               340000 
## 10      5     2             352456.               250000 
## # ℹ 22 more rows
```
…
---
## summarise by_group(): resumiendo datos agupados

Combinando herramientas

```r
data_casen_csv %>% 
* group_by(region, sexo) %>%
      summarise(across(ytrabajocor, list(media =  ~mean(.x, na.rm = TRUE), mediana = ~median(.x, na.rm = TRUE))))
```

```
## # A tibble: 32 × 4
## # Groups:   region [16]
##    region  sexo ytrabajocor_media ytrabajocor_mediana
##     <dbl> <dbl>             <dbl>               <dbl>
##  1      1     1           602465.             416250 
##  2      1     2           420287.             300000 
##  3      2     1           797842.             600000 
##  4      2     2           565274.             380000 
##  5      3     1           636032.             482000 
##  6      3     2           414388.             300000 
##  7      4     1           459171.             350000 
##  8      4     2           315574.             270834.
##  9      5     1           570293.             363208.
## 10      5     2           436425.             300000 
## # ℹ 22 more rows
```

---
## summarise: funciones externas

Supongamos que queremos calcular el indice de Gini para cada región de Chile.

```r
*library(ineq)
data_casen_csv %>% 
  group_by(region, sexo) %>% 
* summarise(gini = Gini(ytotcor, na.rm = T))
```

```
## # A tibble: 32 × 3
## # Groups:   region [16]
##    region  sexo  gini
##     <dbl> <dbl> <dbl>
##  1      1     1 0.462
##  2      1     2 0.491
##  3      2     1 0.469
##  4      2     2 0.554
##  5      3     1 0.499
##  6      3     2 0.493
##  7      4     1 0.458
##  8      4     2 0.516
##  9      5     1 0.505
## 10      5     2 0.529
## # ℹ 22 more rows
```
---
## summarise: funciones propias

Supongamos que queremos calcular el indice de Gini para cada región de Chile.

```r
*ratio_9010 <- function(x) { quantile(x,p=0.9, na.rm=T)/quantile(x,p=0.1, na.rm =T)}

data_casen_csv %>% 
  group_by(region, sexo) %>% 
* summarise(ratio9010 = ratio_9010(ytotcor))
```

```
## # A tibble: 32 × 3
## # Groups:   region [16]
##    region  sexo ratio9010
##     <dbl> <dbl>     <dbl>
##  1      1     1      11.8
##  2      1     2      41.5
##  3      2     1      12.0
##  4      2     2      30.0
##  5      3     1      12.8
##  6      3     2      21.0
##  7      4     1      72.1
##  8      4     2      40.8
##  9      5     1      21.0
## 10      5     2      31.9
## # ℹ 22 more rows
```
…
---
## join: juntar bases de datos por más de una llave

.pull-left[

```r
data_casen_csv %>% 
  select(region,sexo,yautcorh)
```

```
## # A tibble: 21,644 × 3
##    region  sexo yautcorh
##     <dbl> <dbl>    <dbl>
##  1     13     2   600000
##  2      7     2   392000
##  3     13     2    87417
##  4     13     1  2791666
##  5      9     2   501667
##  6     13     2   781000
##  7      6     1   270000
##  8      8     2   362500
##  9      3     2   433333
## 10      6     2  1093750
## # ℹ 21,634 more rows
```
]

--

.pull-right[

```r
gini_regsex <- data_casen_csv %>% 
* group_by(region,sexo) %>%
  summarise(gini = Gini(yautcorh, na.rm = T )); gini_regsex
```

```
## # A tibble: 32 × 3
## # Groups:   region [16]
##    region  sexo  gini
##     <dbl> <dbl> <dbl>
##  1      1     1 0.406
##  2      1     2 0.427
##  3      2     1 0.390
##  4      2     2 0.423
##  5      3     1 0.439
##  6      3     2 0.448
##  7      4     1 0.392
##  8      4     2 0.399
##  9      5     1 0.443
## 10      5     2 0.456
## # ℹ 22 more rows
```
…
--

Quiero incorporar la información agregada a mi bases de datos.

---
## join: juntar bases de datos por más de una llave

```r
data_casen_csv %>% 
* left_join(gini_regsex, by=c("region","sexo")) %>%
  select(region,sexo,yautcorh, gini)
```

```
## # A tibble: 21,644 × 4
##    region  sexo yautcorh  gini
##     <dbl> <dbl>    <dbl> <dbl>
##  1     13     2   600000 0.506
##  2      7     2   392000 0.453
##  3     13     2    87417 0.506
##  4     13     1  2791666 0.512
##  5      9     2   501667 0.525
##  6     13     2   781000 0.506
##  7      6     1   270000 0.394
##  8      8     2   362500 0.456
##  9      3     2   433333 0.448
## 10      6     2  1093750 0.409
## # ℹ 21,634 more rows
```
…
