Procesamiento avanzado de Bases de Datos en R
…
covid_data
```

---
## Análisis de datos Covid-19 con `purrr`

```
## # A tibble: 1,260 × 6
##    continent location    dv                            y iv                       x
##    <chr>     <chr>       <chr>                     <dbl> <chr>                <dbl>
##  1 Asia      Afghanistan total_cases_per_million  1117.  population_density    54.4
##  2 Asia      Afghanistan total_cases_per_million  1117.  median_age            18.6
##  3 Asia      Afghanistan total_cases_per_million  1117.  gdp_per_capita      1804. 
##  4 Asia      Afghanistan total_deaths_per_million   41.9 population_density    54.4
##  5 Asia      Afghanistan total_deaths_per_million   41.9 median_age            18.6
##  6 Asia      Afghanistan total_deaths_per_million   41.9 gdp_per_capita      1804. 
##  7 Europe    Albania     total_cases_per_million  9880.  population_density   105. 
##  8 Europe    Albania     total_cases_per_million  9880.  median_age            38  
##  9 Europe    Albania     total_cases_per_million  9880.  gdp_per_capita     11803. 
## 10 Europe    Albania     total_deaths_per_million  219.  population_density   105. 
## # ℹ 1,250 more rows
```

---
## Análisis de datos Covid-19 con `purrr`

```r
*fit_lm <- covid_data %>% nest(-c(continent,dv,iv)) %>%
  mutate(
    fit = map(data, ~ lm(y ~ x, data = .x))
  ) 
fit_lm
```

```
## # A tibble: 36 × 5
##    continent dv                       iv                 data              fit   
##    <chr>     <chr>                    <chr>              <list>            <list>
##  1 Asia      total_cases_per_million  population_density <tibble [46 × 3]> <lm>  
##  2 Asia      total_cases_per_million  median_age         <tibble [46 × 3]> <lm>  
##  3 Asia      total_cases_per_million  gdp_per_capita     <tibble [46 × 3]> <lm>  
##  4 Asia      total_deaths_per_million population_density <tibble [46 × 3]> <lm>  
##  5 Asia      total_deaths_per_million median_age         <tibble [46 × 3]> <lm>  
##  6 Asia      total_deaths_per_million gdp_per_capita     <tibble [46 × 3]> <lm>  
##  7 Europe    total_cases_per_million  population_density <tibble [48 × 3]> <lm>  
##  8 Europe    total_cases_per_million  median_age         <tibble [48 × 3]> <lm>  
##  9 Europe    total_cases_per_million  gdp_per_capita     <tibble [48 × 3]> <lm>  
## 10 Europe    total_deaths_per_million population_density <tibble [48 × 3]> <lm>  
## # ℹ 26 more rows
```
---
## Análisis de datos Covid-19 con `purrr`

```r
fit_lm <- covid_data %>% nest(-c(continent,dv,iv)) %>%
  mutate(fit = map(data, ~ lm(y ~ x, data = .x))) %>% 
* mutate(coefs = map(fit, tidy))
  
fit_lm
```

```
## # A tibble: 36 × 6
##    continent dv                       iv                 data              fit    coefs           
##    <chr>     <chr>                    <chr>              <list>            <list> <list>          
##  1 Asia      total_cases_per_million  population_density <tibble [46 × 3]> <lm>   <tibble [2 × 5]>
##  2 Asia      total_cases_per_million  median_age         <tibble [46 × 3]> <lm>   <tibble [2 × 5]>
##  3 Asia      total_cases_per_million  gdp_per_capita     <tibble [46 × 3]> <lm>   <tibble [2 × 5]>
##  4 Asia      total_deaths_per_million population_density <tibble [46 × 3]> <lm>   <tibble [2 × 5]>
##  5 Asia      total_deaths_per_million median_age         <tibble [46 × 3]> <lm>   <tibble [2 × 5]>
##  6 Asia      total_deaths_per_million gdp_per_capita     <tibble [46 × 3]> <lm>   <tibble [2 × 5]>
##  7 Europe    total_cases_per_million  population_density <tibble [48 × 3]> <lm>   <tibble [2 × 5]>
##  8 Europe    total_cases_per_million  median_age         <tibble [48 × 3]> <lm>   <tibble [2 × 5]>
##  9 Europe    total_cases_per_million  gdp_per_capita     <tibble [48 × 3]> <lm>   <tibble [2 × 5]>
## 10 Europe    total_deaths_per_million population_density <tibble [48 × 3]> <lm>   <tibble [2 × 5]>
## # ℹ 26 more rows
```
---
## Análisis de datos Covid-19 con `purrr`

```r
fit_lm <- covid_data %>% nest(-c(continent,dv,iv)) %>%
  mutate(fit = map(data, ~ lm(y ~ x, data = .x))) %>% 
  mutate(coefs = map(fit, tidy)) %>% 
* dplyr::select(continent,dv,iv,coefs) %>%
* unnest()
  
fit_lm
```

```
## # A tibble: 72 × 8
##    continent dv                       iv                 term         estimate std.error statistic    p.value
##    <chr>     <chr>                    <chr>              <chr>           <dbl>     <dbl>     <dbl>      <dbl>
##  1 Asia      total_cases_per_million  population_density (Intercept) 9456.     2146.         4.41  0.0000711 
##  2 Asia      total_cases_per_million  population_density x              1.40      1.67       0.836 0.408     
##  3 Asia      total_cases_per_million  median_age         (Intercept) 2329.     8948.         0.260 0.796     
##  4 Asia      total_cases_per_million  median_age         x            243.      290.         0.838 0.407     
##  5 Asia      total_cases_per_million  gdp_per_capita     (Intercept) 4534.     2380.         1.91  0.0636    
##  6 Asia      total_cases_per_million  gdp_per_capita     x              0.250     0.0710     3.52  0.00106   
##  7 Asia      total_deaths_per_million population_density (Intercept)  121.       23.4        5.17  0.00000828
##  8 Asia      total_deaths_per_million population_density x             -0.0150    0.0172    -0.873 0.388     
##  9 Asia      total_deaths_per_million median_age         (Intercept)   87.9     101.         0.873 0.388     
## 10 Asia      total_deaths_per_million median_age         x              0.904     3.20       0.283 0.779     
## # ℹ 62 more rows
```
…
