Procesamiento avanzado de Bases de Datos en R
…
---
## De ancho a largo

.pull-left[

```
## # A tibble: 34 × 4
##    group     wl1   wl2   wl3
##    <fct>   <int> <int> <int>
##  1 Control     4     3     3
##  2 Control     4     4     3
##  3 Control     4     3     1
##  4 Control     3     2     1
##  5 Control     5     3     2
##  6 Control     6     5     4
##  7 Control     6     5     4
##  8 Control     5     4     1
##  9 Control     5     4     1
## 10 Control     3     3     2
## # ℹ 24 more rows
```
- group: a factor with levels Control Diet DietEx.
- wl1: weight loss at 1 month
- wl2: weight loss at 2 months
- wl3: weight loss at 3 months
]
.pull-right[

```r
wl %>% 
  pivot_longer(
*   cols = starts_with("w"))
```

```
## # A tibble: 102 × 3
##    group   name  value
##    <fct>   <chr> <int>
##  1 Control wl1       4
##  2 Control wl2       3
##  3 Control wl3       3
##  4 Control wl1       4
##  5 Control wl2       4
##  6 Control wl3       3
##  7 Control wl1       4
##  8 Control wl2       3
##  9 Control wl3       1
## 10 Control wl1       3
## # ℹ 92 more rows
```
]

---
## De ancho a largo

.pull-left[

```
## # A tibble: 34 × 4
##    group     wl1   wl2   wl3
##    <fct>   <int> <int> <int>
##  1 Control     4     3     3
##  2 Control     4     4     3
##  3 Control     4     3     1
##  4 Control     3     2     1
##  5 Control     5     3     2
##  6 Control     6     5     4
##  7 Control     6     5     4
##  8 Control     5     4     1
##  9 Control     5     4     1
## 10 Control     3     3     2
## # ℹ 24 more rows
```
…
```r
wl %>% 
  pivot_longer(
    cols = starts_with("w"), 
    names_to="week", 
*   values_to= "lbs_lost")
```

```
## # A tibble: 102 × 3
##    group   week  lbs_lost
##    <fct>   <chr>    <int>
##  1 Control wl1          4
##  2 Control wl2          3
##  3 Control wl3          3
##  4 Control wl1          4
##  5 Control wl2          4
##  6 Control wl3          3
##  7 Control wl1          4
##  8 Control wl2          3
##  9 Control wl3          1
## 10 Control wl1          3
## # ℹ 92 more rows
```
]

---
## De ancho a largo

.pull-left[

```
## # A tibble: 34 × 4
##    group     wl1   wl2   wl3
##    <fct>   <int> <int> <int>
##  1 Control     4     3     3
##  2 Control     4     4     3
##  3 Control     4     3     1
##  4 Control     3     2     1
##  5 Control     5     3     2
##  6 Control     6     5     4
##  7 Control     6     5     4
##  8 Control     5     4     1
##  9 Control     5     4     1
## 10 Control     3     3     2
## # ℹ 24 more rows
```
…
```r
wl %>% 
  pivot_longer(
    cols = starts_with("w"), 
    names_to="week", 
    values_to= "lbs_lost",
*   names_prefix="wl")
```

```
## # A tibble: 102 × 3
##    group   week  lbs_lost
##    <fct>   <chr>    <int>
##  1 Control 1            4
##  2 Control 2            3
##  3 Control 3            3
##  4 Control 1            4
##  5 Control 2            4
##  6 Control 3            3
##  7 Control 1            4
##  8 Control 2            3
##  9 Control 3            1
## 10 Control 1            3
## # ℹ 92 more rows
```
]

---
## De ancho a largo, avanzado

.pull-left[

```
## # A tibble: 34 × 8
##       id group     wl1   wl2   wl3   se1   se2   se3
##    <int> <fct>   <int> <int> <int> <int> <int> <int>
##  1     1 Control     4     3     3    14    13    15
##  2     2 Control     4     4     3    13    14    17
##  3     3 Control     4     3     1    17    12    16
##  4     4 Control     3     2     1    11    11    12
##  5     5 Control     5     3     2    16    15    14
##  6     6 Control     6     5     4    17    18    18
##  7     7 Control     6     5     4    17    16    19
##  8     8 Control     5     4     1    13    15    15
##  9     9 Control     5     4     1    14    14    15
## 10    10 Control     3     3     2    14    15    13
## # ℹ 24 more rows
```
…
## De ancho a largo, avanzado

```r
wl %>% pivot_longer(cols = -c(id,group),     
*                   names_to = "outcome_week",
*                   values_to = "score")
```

--

.pull-left[

```
## # A tibble: 204 × 4
##       id group   outcome_week score
##    <int> <fct>   <chr>        <int>
##  1     1 Control wl1              4
##  2     1 Control wl2              3
##  3     1 Control wl3              3
##  4     1 Control se1             14
##  5     1 Control se2             13
##  6     1 Control se3             15
##  7     2 Control wl1              4
##  8     2 Control wl2              4
##  9     2 Control wl3              3
## 10     2 Control se1             13
## # ℹ 194 more rows
```
…
---

## De ancho a largo, avanzado

```r
wl_long <- wl %>% pivot_longer(cols = -c(id,group),     
                    names_to = "outcome_week",
                    values_to = "score") %>%
*           separate(outcome_week, into = c("outcome", "week"), sep = 2); wl_long
```

```
## # A tibble: 204 × 5
##       id group   outcome week  score
##    <int> <fct>   <chr>   <chr> <int>
##  1     1 Control wl      1         4
##  2     1 Control wl      2         3
##  3     1 Control wl      3         3
##  4     1 Control se      1        14
##  5     1 Control se      2        13
##  6     1 Control se      3        15
##  7     2 Control wl      1         4
##  8     2 Control wl      2         4
##  9     2 Control wl      3         3
## 10     2 Control se      1        13
## # ℹ 194 more rows
```
…
---
## De largo a ancho

Retomando nuestros datos ...

```
## # A tibble: 204 × 5
##       id group   outcome week  score
##    <int> <fct>   <chr>   <chr> <int>
##  1     1 Control wl      1         4
##  2     1 Control wl      2         3
##  3     1 Control wl      3         3
##  4     1 Control se      1        14
##  5     1 Control se      2        13
##  6     1 Control se      3        15
##  7     2 Control wl      1         4
##  8     2 Control wl      2         4
##  9     2 Control wl      3         3
## 10     2 Control se      1        13
## # ℹ 194 more rows
```

Podriamos separar los valores de la variable `outcome` en dos variables separadas: `wl` y `se`, tomado valores de variable `score`

---
## De largo a ancho

```r
wl_long %>% 
* pivot_wider(names_from = outcome, values_from = score)
```

```
## # A tibble: 102 × 5
##       id group   week     wl    se
##    <int> <fct>   <chr> <int> <int>
##  1     1 Control 1         4    14
##  2     1 Control 2         3    13
##  3     1 Control 3         3    15
##  4     2 Control 1         4    13
##  5     2 Control 2         4    14
##  6     2 Control 3         3    17
##  7     3 Control 1         4    17
##  8     3 Control 2         3    12
##  9     3 Control 3         1    16
## 10     4 Control 1         3    11
## # ℹ 92 more rows
```

---
## De largo a ancho

¿Y si tuvieramos dos variables que contienen valores (`score`, `error`)?

```
## # A tibble: 204 × 6
##       id group   outcome week  score  error
##    <int> <fct>   <chr>   <chr> <int>  <dbl>
##  1     1 Control wl      1         4  0.436
##  2     1 Control wl      2         3  0.620
##  3     1 Control wl      3         3  0.644
##  4     1 Control se      1        14  0.688
##  5     1 Control se      2        13  0.230
##  6     1 Control se      3        15 -0.220
##  7     2 Control wl      1         4  0.235
##  8     2 Control wl      2         4  0.707
##  9     2 Control wl      3         3  0.598
## 10     2 Control se      1        13  1.15 
## # ℹ 194 more rows
```

---
## De largo a ancho

¿Y si tuvieramos dos variables que contienen valores (`score`, `error`)?

```r
wl_long %>% mutate(error = rnorm(n())) %>%
*   pivot_wider(names_from = outcome, values_from = c(score, error))
```

```
## # A tibble: 102 × 7
##       id group   week  score_wl score_se error_wl error_se
##    <int> <fct>   <chr>    <int>    <int>    <dbl>    <dbl>
##  1     1 Control 1            4       14    0.456   -0.409
##  2     1 Control 2            3       13    1.00    -0.278
##  3     1 Control 3            3       15    0.279    1.94 
##  4     2 Control 1            4       13    0.709    0.246
##  5     2 Control 2            4       14   -0.836    0.614
##  6     2 Control 3            3       17   -1.01    -0.107
##  7     3 Control 1            4       17    0.458    1.14 
##  8     3 Control 2            3       12   -0.373   -0.143
##  9     3 Control 3            1       16    1.72    -2.53 
## 10     4 Control 1            3       11    0.912   -0.839
## # ℹ 92 more rows
```

---
## De largo a ancho

Más aún ...

```r
wl_long %>% mutate(error = rnorm(n())) %>%
*   pivot_wider(names_from = c(outcome,week), values_from = c(score, error))
```

```
## # A tibble: 34 × 14
##       id group   score_wl_1 score_wl_2 score_wl_3 score_se_1 score_se_2 score_se_3 error_wl_1
##    <int> <fct>        <int>      <int>      <int>      <int>      <int>      <int>      <dbl>
##  1     1 Control          4          3          3         14         13         15      0.497
##  2     2 Control          4          4          3         13         14         17     -2.58 
##  3     3 Control          4          3          1         17         12         16     -1.80 
##  4     4 Control          3          2          1         11         11         12     -1.91 
##  5     5 Control          5          3          2         16         15         14     -0.306
##  6     6 Control          6          5          4         17         18         18     -0.985
##  7     7 Control          6          5          4         17         16         19     -1.00 
##  8     8 Control          5          4          1         13         15         15      2.71 
##  9     9 Control          5          4          1         14         14         15      0.101
## 10    10 Control          3          3          2         14         15         13      1.14 
## # ℹ 24 more rows
## # ℹ 5 more variables: error_wl_2 <dbl>, error_wl_3 <dbl>, error_se_1 <dbl>, error_se_2 <dbl>,
## #   error_se_3 <dbl>
```

---
class: inverse, center, middle

#tidyr::separate()
#y
#tidyr::unite()

---
## Dos variables en una sólo columna: separar columna 

```
## # A tibble: 184 × 3
##    year  region                      population
##    <chr> <chr>                       <chr>     
##  1 1820  Western Europe              2.307     
##  2 1820  Eastern Europe              818       
##  3 1820  Western Offshoots           2.513     
##  4 1820  Latin America               953       
##  5 1820  Asia (East)                 1.089     
##  6 1820  Asia (South and South-East) 929       
##  7 1820  Middle East                 974       
##  8 1820  Sub-Sahara Africa           800       
##  9 1830  Western Europe              2.384     
## 10 1830  Eastern Europe              942       
## # ℹ 174 more rows
```

---
## Dos variables en una sólo columna: separar columna 

```r
data_mpd <- data_mpd %>% separate(region, into = c("zone", "continent"), sep = " ", extra="merge")
data_mpd 
```

```
## # A tibble: 184 × 4
##    year  zone       continent              population
##    <chr> <chr>      <chr>                  <chr>     
##  1 1820  Western    Europe                 2.307     
##  2 1820  Eastern    Europe                 818       
##  3 1820  Western    Offshoots              2.513     
##  4 1820  Latin      America                953       
##  5 1820  Asia       (East)                 1.089     
##  6 1820  Asia       (South and South-East) 929       
##  7 1820  Middle     East                   974       
##  8 1820  Sub-Sahara Africa                 800       
##  9 1830  Western    Europe                 2.384     
## 10 1830  Eastern    Europe                 942       
## # ℹ 174 more rows
```

---
## Una variable dividad en dos columnas: unir columna

```r
data_mpd <- data_mpd %>% unite(col = "region", c("zone","continent"), sep = "-")
data_mpd 
```

```
## # A tibble: 184 × 3
##    year  region                      population
##    <chr> <chr>                       <chr>     
##  1 1820  Western-Europe              2.307     
##  2 1820  Eastern-Europe              818       
##  3 1820  Western-Offshoots           2.513     
##  4 1820  Latin-America               953       
##  5 1820  Asia-(East)                 1.089     
##  6 1820  Asia-(South and South-East) 929       
##  7 1820  Middle-East                 974       
##  8 1820  Sub-Sahara-Africa           800       
##  9 1830  Western-Europe              2.384     
## 10 1830  Eastern-Europe              942       
## # ℹ 174 more rows
```
---
class: inverse, center, middle

#Combinando herramientas

---
##Combinando herramientas (1)

```r
data_mpd_messy <- read_delim("mpd2020.csv", delim = ";")
data_mpd_messy
```

```
## # A tibble: 25 × 19
##    ...1   `GDP pc 2011 prices...2` `GDP pc 2011 prices...3` `GDP pc 2011 prices...4`
##    <chr>  <chr>                    <chr>                    <chr>                   
##  1 Region Western Europe           Eastern Europe           Western Offshoots       
##  2 Year   <NA>                     <NA>                     <NA>                    
##  3 1820   2.307                    818                      2.513                   
##  4 1830   2.384                    942                      <NA>                    
##  5 1840   2.580                    907                      <NA>                    
##  6 1850   2.678                    985                      3.474                   
##  7 1860   3.034                    1.358                    4.214                   
##  8 1870   3.301                    1.575                    4.647                   
##  9 1880   3.585                    1.886                    6.019                   
## 10 1890   4.079                    2.204                    6.481                   
## # ℹ 15 more rows
## # ℹ 15 more variables: `GDP pc 2011 prices...5` <chr>, `GDP pc 2011 prices...6` <chr>,
## #   `GDP pc 2011 prices...7` <chr>, `GDP pc 2011 prices...8` <chr>,
## #   `GDP pc 2011 prices...9` <chr>, Population...10 <chr>, Population...11 <chr>,
## #   Population...12 <chr>, Population...13 <chr>, Population...14 <chr>, Population...15 <chr>,
## #   Population...16 <chr>, Population...17 <chr>, Population...18 <chr>, Population...19 <chr>
```

---
##Combinando herramientas (1)

```r
data_mpd_messy %>% select(`...1`,starts_with("GDP")) %>% row_to_names(row_number = 1) %>%
* rename(year=Region) %>%
* filter(year!="Year")
```

```
## # A tibble: 23 × 9
##    year  `Western Europe` `Eastern Europe` `Western Offshoots` `Latin America` `Asia (East)`
##    <chr> <chr>            <chr>            <chr>               <chr>           <chr>        
##  1 1820  2.307            818              2.513               953             1.089        
##  2 1830  2.384            942              <NA>                <NA>            <NA>         
##  3 1840  2.580            907              <NA>                <NA>            <NA>         
##  4 1850  2.678            985              3.474               1.081           900          
##  5 1860  3.034            1.358            4.214               1.588           <NA>         
##  6 1870  3.301            1.575            4.647               1.319           989          
##  7 1880  3.585            1.886            6.019               <NA>            <NA>         
##  8 1890  4.079            2.204            6.481               1.673           <NA>         
##  9 1900  4.724            2.700            7.741               1.751           1.086        
## 10 1910  5.135            2.283            9.355               2.194           <NA>         
## # ℹ 13 more rows
## # ℹ 3 more variables: `Asia (South and South-East)` <chr>, `Middle East` <chr>,
## #   `Sub-Sahara Africa` <chr>
```

---
##Combinando herramientas (1)

```r
data_mpd_gpd <- data_mpd_messy %>% select(`...1`,starts_with("GDP")) %>% row_to_names(row_number = 1) %>%
  rename(year=Region) %>%
  filter(year!="Year") %>%
  pivot_longer(-year, names_to= "region", values_to="dgp"); data_mpd_gpd #<< data_mpd_gpd 
```

```
## # A tibble: 184 × 3
##    year  region                      dgp  
##    <chr> <chr>                       <chr>
##  1 1820  Western Europe              2.307
##  2 1820  Eastern Europe              818  
##  3 1820  Western Offshoots           2.513
##  4 1820  Latin America               953  
##  5 1820  Asia (East)                 1.089
##  6 1820  Asia (South and South-East) 929  
##  7 1820  Middle East                 974  
##  8 1820  Sub-Sahara Africa           800  
##  9 1830  Western Europe              2.384
## 10 1830  Eastern Europe              942  
## # ℹ 174 more rows
```

---
##Combinando herramientas (1)

```r
data_mpd_pop <- data_mpd_messy %>% select(`...1`,starts_with("Population")) %>% row_to_names(row_number = 1) %>%
  rename(year=Region) %>%
  filter(year!="Year") %>%
  pivot_longer(-year, names_to= "region", values_to="population"); data_mpd_pop
```

```
## # A tibble: 230 × 3
##    year  region                      population
##    <chr> <chr>                       <chr>     
##  1 1820  Western Europe              132.371   
##  2 1820  Western Offshoots           11.231    
##  3 1820  Eastern Europe              90.785    
##  4 1820  Latin America               20.099    
##  5 1820  Asia (South and South-East) 255.695   
##  6 1820  Asia (East)                 427.757   
##  7 1820  Middle East                 35.600    
##  8 1820  Sub-Sahara Africa           60.000    
##  9 1820  World                       1.033.538 
## 10 1820  World GDP pc                1.102     
## # ℹ 220 more rows
```

---
##Combinando herramientas (1)

```r
data_mpd <- data_mpd_gpd %>% left_join(data_mpd_pop, by=c("year","region"))
data_mpd 
```

```
## # A tibble: 184 × 4
##    year  region                      dgp   population
##    <chr> <chr>                       <chr> <chr>     
##  1 1820  Western Europe              2.307 132.371   
##  2 1820  Eastern Europe              818   90.785    
##  3 1820  Western Offshoots           2.513 11.231    
##  4 1820  Latin America               953   20.099    
##  5 1820  Asia (East)                 1.089 427.757   
##  6 1820  Asia (South and South-East) 929   255.695   
##  7 1820  Middle East                 974   35.600    
##  8 1820  Sub-Sahara Africa           800   60.000    
##  9 1830  Western Europe              2.384 <NA>      
## 10 1830  Eastern Europe              942   <NA>      
## # ℹ 174 more rows
```
…
---
##Combinando herramientas (2)

```r
data_casen_csv %>% 
  summarise(across(starts_with("y"), list(media = ~mean(.x, na.rm = TRUE), mediana= ~median(.x, na.rm = TRUE)) )) %>%
* pivot_longer(
*   everything(),
*   names_to="outcome_stat",
*   values_to="value")
```

```
## # A tibble: 26 × 2
##    outcome_stat        value
##    <chr>               <dbl>
##  1 yaimcorh_media    192620.
##  2 yaimcorh_mediana  150000 
##  3 yautcor_media     493137.
##  4 yautcor_mediana   325000 
##  5 ytotcor_media     417383.
##  6 ytotcor_mediana   287408 
##  7 yautcorh_media    949557.
##  8 yautcorh_mediana  618100 
##  9 ymonecorh_media   986153.
## 10 ymonecorh_mediana 655557 
## # ℹ 16 more rows
```
…
```r
data_casen_csv %>% 
  summarise(across(starts_with("y"), list(media = ~mean(.x, na.rm = TRUE), mediana= ~median(.x, na.rm = TRUE)) )) %>%
  pivot_longer(
    everything(), 
    names_to="outcome_stat",
    values_to="value"
    ) %>%
* separate(outcome_stat, sep="_", into = c("outcome","stat"))
```

```
## # A tibble: 26 × 3
##    outcome   stat      value
##    <chr>     <chr>     <dbl>
##  1 yaimcorh  media   192620.
##  2 yaimcorh  mediana 150000 
##  3 yautcor   media   493137.
##  4 yautcor   mediana 325000 
##  5 ytotcor   media   417383.
##  6 ytotcor   mediana 287408 
##  7 yautcorh  media   949557.
##  8 yautcorh  mediana 618100 
##  9 ymonecorh media   986153.
## 10 ymonecorh mediana 655557 
## # ℹ 16 more rows
```
…
