R, el idioma no oficial de la ciencia de datos
…
--

```
## # A tibble: 78 × 5
##    mandato                presidente        inicio      fin        partido      
##    <chr>                  <chr>             <chr>       <chr>      <chr>        
##  1 Presidente Interino d… Manuel Blanco En… 9 de julio… 9 de sept… "Independien…
##  2 Vicepresidente Interi… Agustín Eyzaguir… 9 de septi… 25 de ene… "Independien…
##  3 Presidente Provisiona… Ramón Freire Ser… 25 de ener… 15 de feb… "Pipiolo"    
##  4 Presidente de la Repú… Ramón Freire Ser… 15 de febr… 8 de mayo… "Pipiolo"    
##  5 Vicepresidente de la … Francisco Antoni… 8 de mayo … 16 de jul… "Pipiolo"    
##  6 Presidente Delegado    Francisco Ramón … 16 de juli… 19 de oct… "Pipiolo"    
##  7 Presidente de la Repú… Francisco Antoni… 19 de octu… 2 de novi… "Pipiolo"    
##  8 Vicepresidente de la … Francisco Ramón … 2 de novie… 7 de novi… "Pipiolo"    
##  9 Presidente de la Junt… Ramón Freire Ser… 7 de novie… 8 de novi… "Pipiolo"    
## 10 Vicepresidente de la … Francisco Ramón … 8 de novie… 7 de dici… "Pipiolo"    
## # … with 68 more rows
```

---
## Procesar 

```r
presidentes <- presidentes  %>%
  filter(grepl("Presidente de la República|Presidenta de la República", mandato)) %>% 
  separate(inicio, into=c("fecha","inicio"), - 4, convert = T) %>% select(-fecha,) %>% 
  mutate(n=1)  %>% arrange(inicio) %>% group_by(partido) %>% mutate(csum_pres = cumsum(n), ultimo=last(inicio)) 
```

--

```
## # A tibble: 40 × 7
## # Groups:   partido [14]
##    presidente                   inicio   fin partido          n csum_pres ultimo
##    <chr>                         <int> <dbl> <chr>        <dbl>     <dbl>  <int>
##  1 Ramón Freire Serrano           1827  1827 Pipiolo          1         1   1829
##  2 Francisco Antonio Pinto Díaz   1829  1829 Pipiolo          1         2   1829
##  3 Joaquín Prieto                 1831  1836 PelucónCons…     1         1   1836
##  4 Joaquín Prieto                 1836  1841 PelucónCons…     1         2   1836
##  5 Manuel Bulnes                  1841  1846 Conservador      1         1   1851
##  6 Manuel Bulnes                  1846  1851 Conservador      1         2   1851
##  7 Manuel Montt Torres            1851  1856 Conservador      1         3   1851
##  8 Manuel Montt Torres            1856  1861 Nacional         1         1   1906
##  9 José Joaquín Pérez Mascayano   1861  1866 Nacional         1         2   1906
## 10 José Joaquín Pérez Mascayano   1866  1871 Nacional         1         3   1906
## # … with 30 more rows
```
…
