Procesamiento avanzado de Bases de Datos en R
…
---
##Gramática visual

<br>
Adivina los datos detrás del siguiente gráfico ...

.pull-left[

``` r
data_ineq
```

```
## # A tibble: 391 × 4
## # Groups:   comuna [262]
##    comuna  sexo gini_ytot gini_yaut
##     <int> <int>     <dbl>     <dbl>
##  1   1101     1     0.491     0.324
##  2   1101     2     0.266     0.261
##  3   1107     1     0.475     0.376
##  4   1107     2     0.450     0.367
##  5   1401     2     0         0    
##  6   1402     1   NaN       NaN    
##  7   2101     1     0.465     0.465
##  8   2101     2     0.392     0.311
##  9   2102     1   NaN       NaN    
## 10   2102     2   NaN       NaN    
## # ℹ 381 more rows
```
…
<br>
Adivina los datos detrás del siguiente gráfico ...

.pull-left[

``` r
data_ineq
```
]

--
.pull-right[

```
## # A tibble: 391 × 4
## # Groups:   comuna [262]
##    comuna  sexo gini_ytot gini_yaut
##     <int> <int>     <dbl>     <dbl>
##  1   1101     1     0.491     0.324
##  2   1101     2     0.266     0.261
##  3   1107     1     0.475     0.376
##  4   1107     2     0.450     0.367
##  5   1401     2     0         0    
##  6   1402     1   NaN       NaN    
##  7   2101     1     0.465     0.465
##  8   2101     2     0.392     0.311
##  9   2102     1   NaN       NaN    
## 10   2102     2   NaN       NaN    
## # ℹ 381 more rows
```
…
