Procesamiento avanzado de Bases de Datos en R
…
print(mytibble)
```
]

--

.pull-right[

```
## # A tibble: 24 × 3
##    x         y z    
##    <chr> <int> <fct>
##  1 A         7 q    
##  2 B         5 a    
##  3 C         2 f    
##  4 A         7 b    
##  5 B        10 j    
##  6 C         9 h    
##  7 A         9 w    
##  8 B         8 n    
##  9 C         2 k    
## 10 A         6 c    
## # ℹ 14 more rows
```
…
---

## Transformar un data frame en tibble

Así se ven cuando los transformamos a `tibble`:

--

``` r
as_tibble(data_casen_csv)
```

```
## # A tibble: 21,644 × 23
##            folio region comuna  pco1  sexo  edad ecivil yaimcorh yautcor ytotcor
##            <dbl>  <dbl>  <dbl> <dbl> <dbl> <dbl>  <dbl>    <dbl>   <dbl>   <dbl>
##  1 1310510300101     13  13105    10     2    15      8   150000      NA      NA
##  2  710210140701      7   7102     2     2    59      1   250000      NA      NA
##  3 1320110300401     13  13201     1     2    33      8   150000   52500   78327
##  4 1320230021001     13  13202     1     1    47      1   900000 1508333 1508333
##  5  910330010701      9   9103     4     2    58      8    80000    1667    1667
##  6 1311310110701     13  13113    13     2     1      8        0      NA      NA
##  7  610430011401      6   6104     1     1    42      8   100000  270000  270000
##  8  830530010801      8   8305     2     2    45      1   100000      NA   44109
##  9  330110680201      3   3301     1     2    27      8   150000  433333  433333
## 10  611730032101      6   6117     4     2    17      8   200000      NA      NA
## # ℹ 21,634 more rows
## # ℹ 13 more variables: yautcorh <dbl>, ymonecorh <dbl>, ytotcorh <dbl>,
## #   yoprcor <dbl>, yoprcorh <dbl>, ytrabajocor <dbl>, ytrabajocorh <dbl>,
## #   ypchautcor <dbl>, ypc <dbl>, ypchtrabajo <dbl>, esc <dbl>, educ <dbl>,
## #   depen <dbl>
```
…
## arrange: ordenación de datos

La función `arrange()` permite ordenar las observaciones de una base de datos en función de los valores de una o más variables, en orden ascendente o descendente.

Continuando con los datos de la encuesta Casen 2017, esta es la vista no-ordenada de los datos:

--

``` r
as_tibble(data_casen_csv)
```

```
## # A tibble: 21,644 × 23
##            folio region comuna  pco1  sexo  edad ecivil yaimcorh yautcor ytotcor
##            <dbl>  <dbl>  <dbl> <dbl> <dbl> <dbl>  <dbl>    <dbl>   <dbl>   <dbl>
##  1 1310510300101     13  13105    10     2    15      8   150000      NA      NA
##  2  710210140701      7   7102     2     2    59      1   250000      NA      NA
##  3 1320110300401     13  13201     1     2    33      8   150000   52500   78327
##  4 1320230021001     13  13202     1     1    47      1   900000 1508333 1508333
##  5  910330010701      9   9103     4     2    58      8    80000    1667    1667
##  6 1311310110701     13  13113    13     2     1      8        0      NA      NA
##  7  610430011401      6   6104     1     1    42      8   100000  270000  270000
##  8  830530010801      8   8305     2     2    45      1   100000      NA   44109
##  9  330110680201      3   3301     1     2    27      8   150000  433333  433333
## 10  611730032101      6   6117     4     2    17      8   200000      NA      NA
## # ℹ 21,634 more rows
## # ℹ 13 more variables: yautcorh <dbl>, ymonecorh <dbl>, ytotcorh <dbl>,
## #   yoprcor <dbl>, yoprcorh <dbl>, ytrabajocor <dbl>, ytrabajocorh <dbl>,
## #   ypchautcor <dbl>, ypc <dbl>, ypchtrabajo <dbl>, esc <dbl>, educ <dbl>,
## #   depen <dbl>
```
…
## arrange: ordenación de datos

Supongamos que queremos orderar la base de datos por edad. Por defecto `arrange()` ordena los datos en orden ascendente.
 
--

``` r
library("dplyr") 

data_casen_csv %>% arrange(edad)
```

```
## # A tibble: 21,644 × 23
##            folio region comuna  pco1  sexo  edad ecivil yaimcorh yautcor ytotcor
##            <dbl>  <dbl>  <dbl> <dbl> <dbl> <dbl>  <dbl>    <dbl>   <dbl>   <dbl>
##  1  580110531801      5   5801     4     1     0      8        0      NA      NA
##  2  710620021401      7   7106     4     1     0      8        0      NA   11091
##  3  810111210401      8   8101     4     1     0      8    80000      NA      NA
##  4 1020630011001     10  10206    10     2     0      8   100000      NA   11091
##  5  912010180101      9   9120     4     2     0      8        0      NA      NA
##  6  740110190401      7   7401     4     2     0      8   280000      NA      NA
##  7 1010430020901     10  10104     4     1     0      8    80000    1667    1667
##  8 1240130020902     12  12401     4     1     0      8   300000      NA      NA
##  9  910910160601      9   9109     4     2     0      8        0      NA   11091
## 10  920110410501      9   9201     4     1     0      8   150000      NA   11091
## # ℹ 21,634 more rows
## # ℹ 13 more variables: yautcorh <dbl>, ymonecorh <dbl>, ytotcorh <dbl>,
## #   yoprcor <dbl>, yoprcorh <dbl>, ytrabajocor <dbl>, ytrabajocorh <dbl>,
## #   ypchautcor <dbl>, ypc <dbl>, ypchtrabajo <dbl>, esc <dbl>, educ <dbl>,
## #   depen <dbl>
```

---

## arrange: ordenación de datos

Para ordenar los datos por edad, en orden descendente, usamos la función `arrange()` en combinación con la función `desc()`

--

``` r
data_casen_csv %>% arrange(desc(edad))
```

```
## # A tibble: 21,644 × 23
##            folio region comuna  pco1  sexo  edad ecivil yaimcorh yautcor ytotcor
##            <dbl>  <dbl>  <dbl> <dbl> <dbl> <dbl>  <dbl>    <dbl>   <dbl>   <dbl>
##  1  110110250701      1   1101     8     2   110      7   200000   60000   64932
##  2 1311010121401     13  13110     7     2   101      7   300000  270000  270000
##  3 1311410401401     13  13114    13     2   101      7   800000  300000  300000
##  4  820210161801      8   8202    14     2   101      7   150000  230000  230000
##  5 1010930021401     10  10109     9     1    99      2   120000  321929  321929
##  6 1312010102001     13  13120     7     2    98      7   500000  276000  276000
##  7  510910190801      5   5109     1     1    98      1   400000  800000  800000
##  8  920210120701      9   9202     1     1    97      2   150000      NA  169000
##  9 1312310540301     13  13123     1     1    97      7   800000 1233333 1233333
## 10 1310210140201     13  13102     1     2    97      1   350000   83000   87932
## # ℹ 21,634 more rows
## # ℹ 13 more variables: yautcorh <dbl>, ymonecorh <dbl>, ytotcorh <dbl>,
## #   yoprcor <dbl>, yoprcorh <dbl>, ytrabajocor <dbl>, ytrabajocorh <dbl>,
## #   ypchautcor <dbl>, ypc <dbl>, ypchtrabajo <dbl>, esc <dbl>, educ <dbl>,
## #   depen <dbl>
```

---

## arrange: ordenación de datos

También es posible ordenar los datos por más de una variable. Supongamos que queremos orderar la base de datos por genero y edad, en ese orden. 

--

``` r
data_casen_csv %>% arrange(sexo,edad)
```

```
## # A tibble: 21,644 × 23
##            folio region comuna  pco1  sexo  edad ecivil yaimcorh yautcor ytotcor
##            <dbl>  <dbl>  <dbl> <dbl> <dbl> <dbl>  <dbl>    <dbl>   <dbl>   <dbl>
##  1  580110531801      5   5801     4     1     0      8        0      NA      NA
##  2  710620021401      7   7106     4     1     0      8        0      NA   11091
##  3  810111210401      8   8101     4     1     0      8    80000      NA      NA
##  4 1010430020901     10  10104     4     1     0      8    80000    1667    1667
##  5 1240130020902     12  12401     4     1     0      8   300000      NA      NA
##  6  920110410501      9   9201     4     1     0      8   150000      NA   11091
##  7  830110310701      8   8301    10     1     0      8        0      NA      NA
##  8 1340330011901     13  13403    10     1     0      8    60000      NA      NA
##  9 1410630042101     14  14106     4     1     0      8   100000      NA      NA
## 10  210112360101      2   2101     4     1     0      8        0      NA      NA
## # ℹ 21,634 more rows
## # ℹ 13 more variables: yautcorh <dbl>, ymonecorh <dbl>, ytotcorh <dbl>,
## #   yoprcor <dbl>, yoprcorh <dbl>, ytrabajocor <dbl>, ytrabajocorh <dbl>,
## #   ypchautcor <dbl>, ypc <dbl>, ypchtrabajo <dbl>, esc <dbl>, educ <dbl>,
## #   depen <dbl>
```

---

## arrange: ordenación de datos

Es importante notar que `arrange()` siempre ubicará los datos perdidos (`NA`) al final. Por ejemplo:

--

``` r
data_casen_csv %>% arrange(edad,desc(sexo),yautcor)
```

```
## # A tibble: 21,644 × 23
##            folio region comuna  pco1  sexo  edad ecivil yaimcorh yautcor ytotcor
##            <dbl>  <dbl>  <dbl> <dbl> <dbl> <dbl>  <dbl>    <dbl>   <dbl>   <dbl>
##  1  730111261001      7   7301     5     2     0      8   120000   50000   50000
##  2 1020630011001     10  10206    10     2     0      8   100000      NA   11091
##  3  912010180101      9   9120     4     2     0      8        0      NA      NA
##  4  740110190401      7   7401     4     2     0      8   280000      NA      NA
##  5  910910160601      9   9109     4     2     0      8        0      NA   11091
##  6 1311410112501     13  13114     4     2     0      8   600000      NA      NA
##  7 1330230071301     13  13302     4     2     0      8   250000      NA      NA
##  8  510310111401      5   5103    10     2     0      8   150000      NA      NA
##  9 1312710181001     13  13127     4     2     0      8   150000      NA      NA
## 10  911020020501      9   9110    13     2     0      8    60000      NA      NA
## # ℹ 21,634 more rows
## # ℹ 13 more variables: yautcorh <dbl>, ymonecorh <dbl>, ytotcorh <dbl>,
## #   yoprcor <dbl>, yoprcorh <dbl>, ytrabajocor <dbl>, ytrabajocorh <dbl>,
## #   ypchautcor <dbl>, ypc <dbl>, ypchtrabajo <dbl>, esc <dbl>, educ <dbl>,
## #   depen <dbl>
```
…
## select: selección de variables

La función `select()` permite reterner un sub-conjunto de las variables presentes en la base de datos.

Supongamos que sólo estamos interesados en trabajar con las variables `sexo`,`edad` y `educ`. Podemos retener sólo estas tres variables usando la función `select()`.
 
--

``` r
data_casen_csv %>% select(sexo,edad,educ)
```

```
## # A tibble: 21,644 × 3
##     sexo  edad  educ
##    <dbl> <dbl> <dbl>
##  1     2    15     3
##  2     2    59     2
##  3     2    33     2
##  4     1    47     6
##  5     2    58     5
##  6     2     1     0
##  7     1    42     1
##  8     2    45     1
##  9     2    27     8
## 10     2    17     5
## # ℹ 21,634 more rows
```

---

## select: selección negativa de variables

Supongamos que queremos trabajar con todas las variables excepto `sexo`,`edad` y `educ`. En ese caso escribimos:

--

``` r
data_casen_csv %>% select(!c(sexo,edad,educ))
```

```
## # A tibble: 21,644 × 20
##            folio region comuna  pco1 ecivil yaimcorh yautcor ytotcor yautcorh
##            <dbl>  <dbl>  <dbl> <dbl>  <dbl>    <dbl>   <dbl>   <dbl>    <dbl>
##  1 1310510300101     13  13105    10      8   150000      NA      NA   600000
##  2  710210140701      7   7102     2      1   250000      NA      NA   392000
##  3 1320110300401     13  13201     1      8   150000   52500   78327    87417
##  4 1320230021001     13  13202     1      1   900000 1508333 1508333  2791666
##  5  910330010701      9   9103     4      8    80000    1667    1667   501667
##  6 1311310110701     13  13113    13      8        0      NA      NA   781000
##  7  610430011401      6   6104     1      8   100000  270000  270000   270000
##  8  830530010801      8   8305     2      1   100000      NA   44109   362500
##  9  330110680201      3   3301     1      8   150000  433333  433333   433333
## 10  611730032101      6   6117     4      8   200000      NA      NA  1093750
## # ℹ 21,634 more rows
## # ℹ 11 more variables: ymonecorh <dbl>, ytotcorh <dbl>, yoprcor <dbl>,
## #   yoprcorh <dbl>, ytrabajocor <dbl>, ytrabajocorh <dbl>, ypchautcor <dbl>,
## #   ypc <dbl>, ypchtrabajo <dbl>, esc <dbl>, depen <dbl>
```

---

## select: selección de variables por posición

Si quisiéramos retener las primeras cinco variables de la bases de datos, más la octava variables, podemos hacerlo del siguiente modo:

--

``` r
data_casen_csv %>% select(1:5,8)
```

```
## # A tibble: 21,644 × 6
##            folio region comuna  pco1  sexo yaimcorh
##            <dbl>  <dbl>  <dbl> <dbl> <dbl>    <dbl>
##  1 1310510300101     13  13105    10     2   150000
##  2  710210140701      7   7102     2     2   250000
##  3 1320110300401     13  13201     1     2   150000
##  4 1320230021001     13  13202     1     1   900000
##  5  910330010701      9   9103     4     2    80000
##  6 1311310110701     13  13113    13     2        0
##  7  610430011401      6   6104     1     1   100000
##  8  830530010801      8   8305     2     2   100000
##  9  330110680201      3   3301     1     2   150000
## 10  611730032101      6   6117     4     2   200000
## # ℹ 21,634 more rows
```

---

## select: selección de variables usando 'expresiones regulares'

Supongamos que sólo nos interesan las variables de ingreso. Una forma eficiente de seleccionar todas estas variables es usando el hecho de todas ellas comienzan con la letra `"y"`. La función `starts_with()` justamente implementa esta intuición:

--

``` r
data_casen_csv %>% select(starts_with("y"))
```

```
## # A tibble: 21,644 × 13
##    yaimcorh yautcor ytotcor yautcorh ymonecorh ytotcorh yoprcor yoprcorh
##       <dbl>   <dbl>   <dbl>    <dbl>     <dbl>    <dbl>   <dbl>    <dbl>
##  1   150000      NA      NA   600000    600000   750000      NA       NA
##  2   250000      NA      NA   392000    439331   689331      NA       NA
##  3   150000   52500   78327    87417    146517   296517      NA       NA
##  4   900000 1508333 1508333  2791666   2791666  3691666 1500000  1500000
##  5    80000    1667    1667   501667    720823   800823      NA       NA
##  6        0      NA      NA   781000    781000   781000      NA       NA
##  7   100000  270000  270000   270000    270000   370000  270000   270000
##  8   100000      NA   44109   362500    428791   528791      NA       NA
##  9   150000  433333  433333   433333    433333   583333  430000   430000
## 10   200000      NA      NA  1093750   1093750  1293750      NA       NA
## # ℹ 21,634 more rows
## # ℹ 5 more variables: ytrabajocor <dbl>, ytrabajocorh <dbl>, ypchautcor <dbl>,
## #   ypc <dbl>, ypchtrabajo <dbl>
```
…
## filter: selección de variables

La función `filter()` permite reterner el sub-conjunto de observaciones que cumple con las condiciones especificadas por el usuario. 

Supongamos que sólo estamos interesados analizar los datos para mujeres. Podemos retener este sub-conjunto de filas usando la función `filter()`. 

--

``` r
data_casen_csv %>% filter(sexo==2)
```

```
## # A tibble: 11,281 × 23
##            folio region comuna  pco1  sexo  edad ecivil yaimcorh yautcor ytotcor
##            <dbl>  <dbl>  <dbl> <dbl> <dbl> <dbl>  <dbl>    <dbl>   <dbl>   <dbl>
##  1 1310510300101     13  13105    10     2    15      8   150000      NA      NA
##  2  710210140701      7   7102     2     2    59      1   250000      NA      NA
##  3 1320110300401     13  13201     1     2    33      8   150000   52500   78327
##  4  910330010701      9   9103     4     2    58      8    80000    1667    1667
##  5 1311310110701     13  13113    13     2     1      8        0      NA      NA
##  6  830530010801      8   8305     2     2    45      1   100000      NA   44109
##  7  330110680201      3   3301     1     2    27      8   150000  433333  433333
##  8  611730032101      6   6117     4     2    17      8   200000      NA      NA
##  9  630330031001      6   6303     2     2    54      1   200000  270000  270000
## 10 1311010870401     13  13110    10     2     3      8   300000      NA      NA
## # ℹ 11,271 more rows
## # ℹ 13 more variables: yautcorh <dbl>, ymonecorh <dbl>, ytotcorh <dbl>,
## #   yoprcor <dbl>, yoprcorh <dbl>, ytrabajocor <dbl>, ytrabajocorh <dbl>,
## #   ypchautcor <dbl>, ypc <dbl>, ypchtrabajo <dbl>, esc <dbl>, educ <dbl>,
## #   depen <dbl>
```
…
